…
## Tidyverse

### readxl

``` r
library(readxl)
```

``` r
datasets <- readxl_example("datasets.xlsx")
read_excel(datasets)
#> # A tibble: 150 × 5
#>    Sepal.Length Sepal.Width Petal.Length Petal.Width Species
#>           <dbl>       <dbl>        <dbl>       <dbl> <chr>  
#>  1          5.1         3.5          1.4         0.2 setosa 
#>  2          4.9         3            1.4         0.2 setosa 
#>  3          4.7         3.2          1.3         0.2 setosa 
#>  4          4.6         3.1          1.5         0.2 setosa 
#>  5          5           3.6          1.4         0.2 setosa 
#>  6          5.4         3.9          1.7         0.4 setosa 
#>  7          4.6         3.4          1.4         0.3 setosa 
#>  8          5           3.4          1.5         0.2 setosa 
#>  9          4.4         2.9          1.4         0.2 setosa 
#> 10          4.9         3.1          1.5         0.1 setosa 
#> # … with 140 more rows

# Specify sheet either by position or by name
read_excel(datasets, 2)
#> # A tibble: 32 × 11
#>      mpg   cyl  disp    hp  drat    wt  qsec    vs    am  gear  carb
#>    <dbl> <dbl> <dbl> <dbl> <dbl> <dbl> <dbl> <dbl> <dbl> <dbl> <dbl>
#>  1  21       6  160    110  3.9   2.62  16.5     0     1     4     4
#>  2  21       6  160    110  3.9   2.88  17.0     0     1     4     4
#>  3  22.8     4  108     93  3.85  2.32  18.6     1     1     4     1
#>  4  21.4     6  258    110  3.08  3.22  19.4     1     0     3     1
#>  5  18.7     8  360    175  3.15  3.44  17.0     0     0     3     2
#>  6  18.1     6  225    105  2.76  3.46  20.2     1     0     3     1
#>  7  14.3     8  360    245  3.21  3.57  15.8     0     0     3     4
#>  8  24.4     4  147.    62  3.69  3.19  20       1     0     4     2
#>  9  22.8     4  141.    95  3.92  3.15  22.9     1     0     4     2
#> 10  19.2     6  168.   123  3.92  3.44  18.3     1     0     4     4
#> # … with 22 more rows
read_excel(datasets, "mtcars")
#> # A tibble: 32 × 11
#>      mpg   cyl  disp    hp  drat    wt  qsec    vs    am  gear  carb
#>    <dbl> <dbl> <dbl> <dbl> <dbl> <dbl> <dbl> <dbl> <dbl> <dbl> <dbl>
#>  1  21       6  160    110  3.9   2.62  16.5     0     1     4     4
#>  2  21       6  160    110  3.9   2.88  17.0     0     1     4     4
#>  3  22.8     4  108     93  3.85  2.32  18.6     1     1     4     1
#>  4  21.4     6  258    110  3.08  3.22  19.4     1     0     3     1
#>  5  18.7     8  360    175  3.15  3.44  17.0     0     0     3     2
#>  6  18.1     6  225    105  2.76  3.46  20.2     1     0     3     1
#>  7  14.3     8  360    245  3.21  3.57  15.8     0     0     3     4
#>  8  24.4     4  147.    62  3.69  3.19  20       1     0     4     2
#>  9  22.8     4  141.    95  3.92  3.15  22.9     1     0     4     2
#> 10  19.2     6  168.   123  3.92  3.44  18.3     1     0     4     4
#> # … with 22 more rows
…
# Recycle a single column type
read_excel(datasets, col_types = "text")
#> # A tibble: 150 × 5
#>    Sepal.Length Sepal.Width Petal.Length Petal.Width Species
#>    <chr>        <chr>       <chr>        <chr>       <chr>  
#>  1 5.1          3.5         1.4          0.2         setosa 
#>  2 4.9          3           1.4          0.2         setosa 
#>  3 4.7          3.2         1.3          0.2         setosa 
#>  4 4.6          3.1         1.5          0.2         setosa 
#>  5 5            3.6         1.4          0.2         setosa 
#>  6 5.4          3.9         1.7          0.4         setosa 
#>  7 4.6          3.4         1.4          0.3         setosa 
#>  8 5            3.4         1.5          0.2         setosa 
#>  9 4.4          2.9         1.4          0.2         setosa 
#> 10 4.9          3.1         1.5          0.1         setosa 
#> # … with 140 more rows

# Specify some col_types and guess others
read_excel(datasets, col_types = c("text", "guess", "numeric", "guess", "guess"))
#> # A tibble: 150 × 5
#>    Sepal.Length Sepal.Width Petal.Length Petal.Width Species
#>    <chr>              <dbl>        <dbl>       <dbl> <chr>  
#>  1 5.1                  3.5          1.4         0.2 setosa 
#>  2 4.9                  3            1.4         0.2 setosa 
#>  3 4.7                  3.2          1.3         0.2 setosa 
#>  4 4.6                  3.1          1.5         0.2 setosa 
#>  5 5                    3.6          1.4         0.2 setosa 
#>  6 5.4                  3.9          1.7         0.4 setosa 
#>  7 4.6                  3.4          1.4         0.3 setosa 
#>  8 5                    3.4          1.5         0.2 setosa 
#>  9 4.4                  2.9          1.4         0.2 setosa 
#> 10 4.9                  3.1          1.5         0.1 setosa 
#> # … with 140 more rows
…
# Read only specific rows or columns
read_excel(datasets, range = cell_rows(102:151), col_names = FALSE)
#> New names:
#> • `` -> `...1`
#> • `` -> `...2`
#> • `` -> `...3`
#> • `` -> `...4`
#> • `` -> `...5`
#> # A tibble: 50 × 5
#>     ...1  ...2  ...3  ...4 ...5     
#>    <dbl> <dbl> <dbl> <dbl> <chr>    
#>  1   6.3   3.3   6     2.5 virginica
#>  2   5.8   2.7   5.1   1.9 virginica
#>  3   7.1   3     5.9   2.1 virginica
#>  4   6.3   2.9   5.6   1.8 virginica
#>  5   6.5   3     5.8   2.2 virginica
#>  6   7.6   3     6.6   2.1 virginica
#>  7   4.9   2.5   4.5   1.7 virginica
#>  8   7.3   2.9   6.3   1.8 virginica
#>  9   6.7   2.5   5.8   1.8 virginica
#> 10   7.2   3.6   6.1   2.5 virginica
#> # … with 40 more rows
read_excel(datasets, range = cell_cols("B:D"))
#> # A tibble: 150 × 3
#>    Sepal.Width Petal.Length Petal.Width
#>          <dbl>        <dbl>       <dbl>
#>  1         3.5          1.4         0.2
#>  2         3            1.4         0.2
#>  3         3.2          1.3         0.2
#>  4         3.1          1.5         0.2
#>  5         3.6          1.4         0.2
#>  6         3.9          1.7         0.4
#>  7         3.4          1.4         0.3
#>  8         3.4          1.5         0.2
#>  9         2.9          1.4         0.2
#> 10         3.1          1.5         0.1
#> # … with 140 more rows
…
# specify name repair as a custom function
my_custom_name_repair <- function(nms) tolower(gsub("[.]", "_", nms))
read_excel(
  readxl_example("datasets.xlsx"),
  .name_repair = my_custom_name_repair
)
#> # A tibble: 150 × 5
#>    sepal_length sepal_width petal_length petal_width species
#>           <dbl>       <dbl>        <dbl>       <dbl> <chr>  
#>  1          5.1         3.5          1.4         0.2 setosa 
#>  2          4.9         3            1.4         0.2 setosa 
#>  3          4.7         3.2          1.3         0.2 setosa 
#>  4          4.6         3.1          1.5         0.2 setosa 
#>  5          5           3.6          1.4         0.2 setosa 
#>  6          5.4         3.9          1.7         0.4 setosa 
#>  7          4.6         3.4          1.4         0.3 setosa 
#>  8          5           3.4          1.5         0.2 setosa 
#>  9          4.4         2.9          1.4         0.2 setosa 
#> 10          4.9         3.1          1.5         0.1 setosa 
#> # … with 140 more rows

# specify name repair as an anonymous function
read_excel(
  readxl_example("datasets.xlsx"),
  sheet = "chickwts",
  .name_repair = ~ substr(.x, start = 1, stop = 3)
)
#> # A tibble: 71 × 2
#>      wei fee      
#>    <dbl> <chr>    
#>  1   179 horsebean
#>  2   160 horsebean
#>  3   136 horsebean
#>  4   227 horsebean
#>  5   217 horsebean
#>  6   168 horsebean
#>  7   108 horsebean
#>  8   124 horsebean
#>  9   143 horsebean
#> 10   140 horsebean
#> # … with 61 more rows
```
…
